<?xml version="1.0" encoding="iso-8859-1"?>
<!-- Generator: Adobe Illustrator 19.0.0, SVG Export Plug-In . SVG Version: 6.00 Build 0)  -->
<svg version="1.1" id="Capa_1" xmlns="http://www.w3.org/2000/svg" xmlns:xlink="http://www.w3.org/1999/xlink" x="0px" y="0px"
	 viewBox="0 0 512 512" style="enable-background:new 0 0 512 512;" xml:space="preserve">
<path style="fill:#E1D8DC;" d="M297.74,53.811l-86.2,86.2l34.48,34.48l86.2-86.2c9.522,9.522,24.959,9.522,34.48,0
	c9.522-9.522,9.522-24.959,0-34.48c-9.522-9.522-24.959-9.522-34.48,0c9.522-9.522,9.522-24.959,0-34.48s-24.959-9.522-34.48,0
	C288.219,28.853,288.219,44.29,297.74,53.811z"/>
<path style="fill:#E67F5D;" d="M257.514,128.518c-17.086-17.084-40.987-25.182-67.316-22.784
	c-25.768,2.343-50.842,14.516-70.604,34.277c-19.761,19.762-31.935,44.837-34.277,70.604c-2.392,26.323,5.698,50.23,22.784,67.316
	c15.12,15.119,35.58,23.195,58.331,23.195c2.957,0,5.955-0.136,8.984-0.411c25.768-2.343,50.842-14.516,70.604-34.277
	c19.761-19.762,31.935-44.837,34.277-70.604C282.69,169.509,274.6,145.603,257.514,128.518z"/>
<path style="fill:#EA9174;" d="M360.336,204.743c-39.859-35.076-92.788-54.394-149.035-54.394s-109.176,19.318-149.035,54.394
	C22.114,240.077,0,287.142,0,337.269c0,49.665,21.755,91.453,62.912,120.849c37.641,26.885,90.341,41.69,148.39,41.69
	s110.748-14.805,148.39-41.69c41.157-29.396,62.912-71.184,62.912-120.849C422.603,287.142,400.49,240.077,360.336,204.743z"/>
<path style="fill:#E67F5D;" d="M243.81,483.555c-58.049,0-110.748-14.805-148.39-41.69c-41.157-29.396-62.912-71.184-62.912-120.849
	c0-50.127,22.114-97.193,62.267-132.527c9.151-8.053,18.998-15.265,29.409-21.613c-22.746,9.108-43.7,21.835-61.916,37.867
	C22.114,240.077,0,287.142,0,337.269c0,49.665,21.755,91.453,62.912,120.849c37.641,26.885,90.341,41.69,148.39,41.69
	c53.199,0,101.896-12.443,138.637-35.215C318.86,476.959,282.529,483.555,243.81,483.555z"/>
<path style="fill:#E1D8DC;" d="M435.899,98.929l-86.2,86.2l34.48,34.48l86.2-86.2c9.522,9.522,24.959,9.522,34.48,0
	c9.522-9.522,9.522-24.959,0-34.48c-9.522-9.522-24.959-9.522-34.48,0c9.522-9.522,9.522-24.959,0-34.48s-24.959-9.522-34.48,0
	S426.378,89.409,435.899,98.929z"/>
<path style="fill:#EA9174;" d="M395.672,173.636c-34.856-34.856-96.726-29.698-137.92,11.494
	c-41.193,41.194-46.348,103.063-11.493,137.92c15.12,15.119,35.58,23.195,58.331,23.195c2.957,0,5.955-0.136,8.984-0.411
	c25.768-2.343,50.842-14.516,70.604-34.277C425.372,270.363,430.528,208.491,395.672,173.636z"/>
<path style="fill:#E67F5D;" d="M333.647,321.278c-3.028,0.275-6.027,0.411-8.984,0.411c-22.751,0-43.211-8.076-58.331-23.195
	c-29.03-29.031-30.299-76.797-6.118-115.752c-0.827,0.783-1.65,1.577-2.461,2.388c-41.193,41.194-46.348,103.063-11.493,137.92
	c15.12,15.119,35.58,23.195,58.331,23.195c2.957,0,5.955-0.136,8.984-0.411c25.768-2.343,50.842-14.516,70.604-34.277
	c6.903-6.904,12.789-14.39,17.65-22.23C382.459,307.703,358.38,319.029,333.647,321.278z"/>
<g>
</g>
<g>
</g>
<g>
</g>
<g>
</g>
<g>
</g>
<g>
</g>
<g>
</g>
<g>
</g>
<g>
</g>
<g>
</g>
<g>
</g>
<g>
</g>
<g>
</g>
<g>
</g>
<g>
</g>
</svg>
